Base path: F:/Unity513/Editor/Data
Pipe name: \\.\pipe\UnityShaderCompiler-64bit-2-1748
Cmd: getPlatforms
Unhandled exception: Readfile from pipe failed. GLE=パイプは終了しました。


Quitting shader compiler process
